<svg xmlns="http://www.w3.org/2000/svg" viewBox="0 0 69 67">
    <path d="M68.583 30.148c-.285-3.813-1.272-7.581-2.84-11.066-2.341-5.197-6.058-9.864-10.531-13.072-4.435-3.258-9.57-4.994-14.074-5.199-.319-.024-.72-.064-1.147-.104-.427-.038-.875-.11-1.297-.126C37.54.499 36.228.459 35.291.554c-.938.1-1.494.27-1.175.578.167.162.48.277.888.359.204.042.433.072.679.104.246.038.511.07.788.099l.862.083.896.104c.461.042.911.116 1.346.189a29.294 29.294 0 0 0-2.929-.151c-8.655 0-17.171 3.723-23.519 9.596a24.27 24.27 0 0 0-3.951 4.031c-2.345 3.012-4.139 6.46-5.3 9.976-1.136 3.376-1.589 7.066-1.335 10.807.25 3.747 1.301 7.543 3.102 11.048 1.673 3.235 3.733 6.156 6.18 8.7-1.66-1.218-3.186-2.808-4.478-4.604-1.344-1.861-2.437-3.934-3.298-6.022-3.037-7.358-3.062-15.673-.211-22.74 1.381-3.466 3.35-6.785 5.871-9.661 2.511-2.88 5.554-5.324 8.903-7.106 3.522-1.885 7.444-3.186 11.449-3.661.916-.126 1.745-.2 2.408-.341.665-.106 1.165-.254 1.421-.446.258-.193.142-.352-.246-.481a7.232 7.232 0 0 0-1.865-.273c-1.888-.092-3.899.072-6.16.597a32.601 32.601 0 0 0-9.799 4.065c-3.021 1.89-5.762 4.257-8.038 7.025C3.172 17.925.455 25.006.06 32.184c-.032.391-.046.783-.051 1.177l-.018 1.184c.026.792.028 1.589.112 2.383.119 1.593.405 3.178.822 4.712a34.54 34.54 0 0 0 8.074 14.37 34.377 34.377 0 0 0 6.366 5.348 33.97 33.97 0 0 0 7.491 3.69 34.008 34.008 0 0 0 8.182 1.786c2.784.253 5.593.193 8.373-.219a35.137 35.137 0 0 0 8.109-2.246 34.982 34.982 0 0 0 7.31-4.161 35.303 35.303 0 0 0 7.94-8.264 34.392 34.392 0 0 0 4.784-10.416c.978-3.713 1.343-7.575 1.029-11.38zM17.848 60.789a10.75 10.75 0 0 1-.805-.343 12.504 12.504 0 0 1-.781-.444c-1.02-.652-2.259-1.589-4.077-3.59 2.294 1.887 4.81 3.629 7.542 4.953-.745-.191-1.348-.36-1.879-.576zm2.017.663c.248.199.569.374.929.561.197.1.405.201.622.303l.687.282c.468.195.958.391 1.451.577.49.197.973.405 1.435.615-2.91-.653-4.398-1.529-5.124-2.338z"/>
</svg>
