<svg viewBox="0 0 40 39" xmlns="http://www.w3.org/2000/svg">
    <circle cx="20.045" cy="19.0208" r="19" fill="#70AA34"/>
    <path d="M30.5956 12.437C31.1544 12.9996 31.1312 13.8895 30.5437 14.4247L15.6416 28L8.45626 21.4544C7.86879 20.9193 7.84556 20.0293 8.40438 19.4667C8.96319 18.9041 9.89244 18.8819 10.4799 19.417L15.6416 24.1191L28.5201 12.3873C29.1076 11.8521 30.0368 11.8743 30.5956 12.437Z" fill="white"/>
</svg>
