<svg xmlns="http://www.w3.org/2000/svg" viewBox="0 0 30 30">
            <path d="M15,27A12,12,0,0,1,5,8.32,1,1,0,1,1,6.69,9.43,10,10,0,1,0,15,5a1,1,0,0,1,0-2,12,12,0,0,1,0,24Z"/>
            <polygon points="0.37 6.16 10.45 12.94 8.79 4.51 0.37 6.16"/>
</svg>