<svg width="34" height="25" viewBox="0 0 34 25" fill="none" xmlns="http://www.w3.org/2000/svg">
    <path d="M1.28906 3.02783C1.28906 1.78519 2.29642 0.777832 3.53906 0.777832H25.2025C26.4451 0.777832 27.4525 1.78519 27.4525 3.02783V5.56497H3.53907C2.29642 5.56497 1.28906 4.55761 1.28906 3.31497V3.02783Z" stroke="#505050" stroke-width="1.5"/>
    <path d="M30.2173 7.88107V10.9117C30.0536 10.8824 29.8867 10.8625 29.7173 10.8524V7.88107C29.7173 6.7765 28.8219 5.88107 27.7173 5.88107H20.9041C20.6588 5.88107 20.4145 5.85098 20.1765 5.79149L18.5347 5.38103H20.8913H20.8921L20.9026 5.38107H20.9041H27.7173C29.098 5.38107 30.2173 6.50036 30.2173 7.88107ZM29.7173 21.9999V19.3817C29.8867 19.3716 30.0536 19.3516 30.2173 19.3223V21.9999C30.2173 23.3806 29.098 24.4999 27.7173 24.4999H3.53906C2.15835 24.4999 1.03906 23.3806 1.03906 21.9999V3.70967C1.19146 3.89803 1.35873 4.07379 1.53906 4.23519V21.9999C1.53906 23.1045 2.43449 23.9999 3.53906 23.9999H27.7173C28.8219 23.9999 29.7173 23.1045 29.7173 21.9999Z" fill="white" stroke="#505050"/>
    <line x1="5.0614" y1="3.05017" x2="23.6802" y2="3.05017" stroke="#505050" stroke-width="1.5" stroke-linecap="round"/>
    <rect x="21.408" y="12.0947" width="11.0743" height="6.04457" rx="3.02228" stroke="#505050" stroke-width="1.5"/>
    <circle cx="24.4302" cy="15.1169" r="1.25743" fill="#505050"/>
</svg>